EESchema Schematic File Version 2
LIBS:rubi-conn
LIBS:rubi-cpu
LIBS:rubi-discrete
LIBS:rubi-ic
LIBS:rubi-sensors
LIBS:power
LIBS:device
LIBS:transistors
LIBS:conn
LIBS:linear
LIBS:regul
LIBS:tdc-cache
EELAYER 27 0
EELAYER END
$Descr A4 11693 8268
encoding utf-8
Sheet 1 1
Title ""
Date "20 nov 2018"
Rev ""
Comp ""
Comment1 ""
Comment2 ""
Comment3 ""
Comment4 ""
$EndDescr
$Comp
L GND #PWR01
U 1 1 5BF3EE68
P 2650 3875
F 0 "#PWR01" H 2650 3875 30  0001 C CNN
F 1 "GND" H 2650 3805 30  0001 C CNN
F 2 "" H 2650 3875 60  0000 C CNN
F 3 "" H 2650 3875 60  0000 C CNN
	1    2650 3875
	1    0    0    -1  
$EndComp
$Comp
L R-SMALL R6
U 1 1 5BF3EE6E
P 4250 2900
F 0 "R6" H 4150 3000 60  0000 C CNN
F 1 "33" H 4250 2900 40  0000 C CNN
F 2 "~" H 4250 2900 60  0000 C CNN
F 3 "~" H 4250 2900 60  0000 C CNN
	1    4250 2900
	1    0    0    -1  
$EndComp
$Comp
L R-SMALL R7
U 1 1 5BF3EE74
P 4250 3100
F 0 "R7" H 4150 3200 60  0000 C CNN
F 1 "33" H 4250 3100 40  0000 C CNN
F 2 "~" H 4250 3100 60  0000 C CNN
F 3 "~" H 4250 3100 60  0000 C CNN
	1    4250 3100
	1    0    0    -1  
$EndComp
Text Label 1200 1150 0    40   ~ 0
RST*
Text Label 1200 1550 0    40   ~ 0
SCL
Text Label 1200 1650 0    40   ~ 0
SDA
Text Label 3950 1750 0    40   ~ 0
MISO
Text Label 3950 1850 0    40   ~ 0
MOSI
NoConn ~ 4825 3550
$Comp
L CSMALL C1
U 1 1 5BF3EE81
P 4075 1025
F 0 "C1" H 4100 1075 30  0000 L CNN
F 1 "100n" H 4100 975 30  0000 L CNN
F 2 "~" H 4075 1025 60  0000 C CNN
F 3 "~" H 4075 1025 60  0000 C CNN
	1    4075 1025
	1    0    0    -1  
$EndComp
$Comp
L CSMALL C2
U 1 1 5BF3EE87
P 4275 1025
F 0 "C2" H 4300 1075 30  0000 L CNN
F 1 "100n" H 4300 975 30  0000 L CNN
F 2 "~" H 4275 1025 60  0000 C CNN
F 3 "~" H 4275 1025 60  0000 C CNN
	1    4275 1025
	1    0    0    -1  
$EndComp
$Comp
L GND #PWR02
U 1 1 5BF3EE8D
P 4075 1125
F 0 "#PWR02" H 4075 1125 30  0001 C CNN
F 1 "GND" H 4075 1055 30  0001 C CNN
F 2 "" H 4075 1125 60  0000 C CNN
F 3 "" H 4075 1125 60  0000 C CNN
	1    4075 1125
	1    0    0    -1  
$EndComp
$Comp
L GND #PWR03
U 1 1 5BF3EE93
P 4275 1125
F 0 "#PWR03" H 4275 1125 30  0001 C CNN
F 1 "GND" H 4275 1055 30  0001 C CNN
F 2 "" H 4275 1125 60  0000 C CNN
F 3 "" H 4275 1125 60  0000 C CNN
	1    4275 1125
	1    0    0    -1  
$EndComp
NoConn ~ 3850 1950
NoConn ~ 3850 3450
$Comp
L 3906 Q1
U 1 1 5BF3EE9B
P 4750 2300
F 0 "Q1" H 4800 2300 60  0000 C CNN
F 1 "DTA114" H 4575 2475 60  0000 C CNN
F 2 "~" H 4750 2500 60  0000 C CNN
F 3 "~" H 4750 2500 60  0000 C CNN
	1    4750 2300
	1    0    0    -1  
$EndComp
Text Label 4450 2300 0    40   ~ 0
USBC*
$Comp
L R-SMALL R5
U 1 1 5BF3EEA2
P 4800 2600
F 0 "R5" V 4875 2750 60  0000 C CNN
F 1 "1k5" H 4800 2600 40  0000 C CNN
F 2 "~" H 4800 2600 60  0000 C CNN
F 3 "~" H 4800 2600 60  0000 C CNN
	1    4800 2600
	0    -1   -1   0   
$EndComp
Text Label 1200 1750 0    40   ~ 0
USBC*
Text Label 1200 1250 0    40   ~ 0
PRG*
Text Label 4500 2900 0    40   ~ 0
DP
Text Label 4500 3100 0    40   ~ 0
DM
$Comp
L +3.3V #PWR04
U 1 1 5BF3EEAC
P 4800 2000
F 0 "#PWR04" H 4800 1960 30  0001 C CNN
F 1 "+3.3V" H 4800 2110 30  0000 C CNN
F 2 "" H 4800 2000 60  0001 C CNN
F 3 "" H 4800 2000 60  0001 C CNN
	1    4800 2000
	1    0    0    -1  
$EndComp
$Comp
L +3.3V #PWR05
U 1 1 5BF3EEB2
P 2650 800
F 0 "#PWR05" H 2650 760 30  0001 C CNN
F 1 "+3.3V" H 2650 910 30  0000 C CNN
F 2 "" H 2650 800 60  0001 C CNN
F 3 "" H 2650 800 60  0001 C CNN
	1    2650 800 
	1    0    0    -1  
$EndComp
$Comp
L R-SMALL R4
U 1 1 5BF3EEB8
P 950 1650
F 0 "R4" H 900 1550 60  0000 C CNN
F 1 "1k5" H 950 1650 40  0000 C CNN
F 2 "~" H 950 1650 60  0000 C CNN
F 3 "~" H 950 1650 60  0000 C CNN
	1    950  1650
	1    0    0    -1  
$EndComp
$Comp
L R-SMALL R3
U 1 1 5BF3EEBE
P 950 1550
F 0 "R3" H 875 1700 60  0000 C CNN
F 1 "1k5" H 950 1550 40  0000 C CNN
F 2 "~" H 950 1550 60  0000 C CNN
F 3 "~" H 950 1550 60  0000 C CNN
	1    950  1550
	1    0    0    -1  
$EndComp
$Comp
L +3.3V #PWR06
U 1 1 5BF3EEC4
P 700 1525
F 0 "#PWR06" H 700 1485 30  0001 C CNN
F 1 "+3.3V" H 700 1635 30  0000 C CNN
F 2 "" H 700 1525 60  0001 C CNN
F 3 "" H 700 1525 60  0001 C CNN
	1    700  1525
	1    0    0    -1  
$EndComp
$Comp
L +3.3V #PWR07
U 1 1 5BF3EECA
P 4225 3425
F 0 "#PWR07" H 4225 3385 30  0001 C CNN
F 1 "+3.3V" H 4225 3535 30  0000 C CNN
F 2 "" H 4225 3425 60  0001 C CNN
F 3 "" H 4225 3425 60  0001 C CNN
	1    4225 3425
	-1   0    0    -1  
$EndComp
Text Label 1200 1850 0    40   ~ 0
DIAG1
Text Label 3925 2450 0    40   ~ 0
DIAG2
Text Label 1200 3050 0    40   ~ 0
TXD
Text Label 1200 2950 0    40   ~ 0
RXD
NoConn ~ 3850 2550
Wire Wire Line
	2550 950  2550 875 
Wire Wire Line
	2750 875  2750 950 
Wire Wire Line
	2550 875  4275 875 
Connection ~ 2650 875 
Wire Wire Line
	2550 3750 2550 3800
Wire Wire Line
	2550 3800 2750 3800
Wire Wire Line
	2750 3800 2750 3750
Connection ~ 2650 3800
Wire Wire Line
	3950 2950 3850 2950
Wire Wire Line
	3950 2750 3950 2950
Wire Wire Line
	3950 2900 4100 2900
Wire Wire Line
	3850 3050 3950 3050
Wire Wire Line
	3950 3050 3950 3100
Wire Wire Line
	3950 3100 4100 3100
Wire Wire Line
	4400 2900 4600 2900
Wire Wire Line
	4400 3100 4600 3100
Wire Wire Line
	3850 1750 4200 1750
Wire Wire Line
	3850 1850 4200 1850
Wire Wire Line
	1100 2150 1450 2150
Wire Wire Line
	1100 1550 1450 1550
Wire Wire Line
	1100 1650 1450 1650
Wire Wire Line
	3850 3350 3950 3350
Wire Wire Line
	4075 925  4075 875 
Wire Wire Line
	4275 875  4275 925 
Wire Wire Line
	4800 2150 4800 2000
Wire Wire Line
	1450 1750 1100 1750
Wire Wire Line
	4800 2750 3950 2750
Connection ~ 3950 2900
Wire Wire Line
	1100 1150 1450 1150
Wire Wire Line
	1100 1250 1450 1250
Wire Wire Line
	2650 3800 2650 3875
Wire Wire Line
	2650 800  2650 875 
Wire Wire Line
	800  1550 800  1650
Wire Wire Line
	700  1600 800  1600
Wire Wire Line
	700  1525 700  1600
Connection ~ 800  1600
Wire Wire Line
	1450 1850 1100 1850
Wire Wire Line
	4175 2450 3850 2450
Wire Wire Line
	1100 3050 1450 3050
Wire Wire Line
	1100 2950 1450 2950
Wire Wire Line
	1100 1450 1450 1450
Text Label 1200 1450 0    40   ~ 0
Vbus
$Comp
L OSC-4PIN U2
U 1 1 5BF3EF12
P 4525 3800
F 0 "U2" H 4375 4200 60  0000 C CNN
F 1 "12MHz" H 4525 3400 60  0000 C CNN
F 2 "~" H 4525 3800 60  0000 C CNN
F 3 "~" H 4525 3800 60  0000 C CNN
	1    4525 3800
	-1   0    0    -1  
$EndComp
Wire Wire Line
	4225 3425 4225 3550
Wire Wire Line
	4225 4000 3950 4000
Wire Wire Line
	3950 4000 3950 3350
Wire Wire Line
	4825 4000 4925 4000
Wire Wire Line
	4925 4000 4925 4150
$Comp
L GND #PWR08
U 1 1 5BF3EF1D
P 4925 4150
F 0 "#PWR08" H 4925 4150 30  0001 C CNN
F 1 "GND" H 4925 4080 30  0001 C CNN
F 2 "" H 4925 4150 60  0000 C CNN
F 3 "" H 4925 4150 60  0000 C CNN
	1    4925 4150
	1    0    0    -1  
$EndComp
NoConn ~ 3850 1350
Wire Wire Line
	4400 2300 4650 2300
$Comp
L USB-MINI-B J9
U 1 1 5BF3EF2B
P 10275 1575
F 0 "J9" H 10025 2025 60  0000 C CNN
F 1 "USB-MINI-B" H 10225 2150 60  0000 C CNN
F 2 "" H 10275 1575 60  0000 C CNN
F 3 "" H 10275 1575 60  0000 C CNN
	1    10275 1575
	1    0    0    -1  
$EndComp
$Comp
L UEXT J7
U 1 1 5BF3EFEA
P 10300 4625
F 0 "J7" H 10300 4325 60  0000 C CNN
F 1 "UEXT" H 10300 4975 60  0000 C CNN
F 2 "~" H 10300 4625 60  0000 C CNN
F 3 "~" H 10300 4625 60  0000 C CNN
	1    10300 4625
	1    0    0    -1  
$EndComp
Wire Wire Line
	9300 1275 9725 1275
$Comp
L +5V #PWR09
U 1 1 5BF3EFFF
P 8900 875
F 0 "#PWR09" H 8900 965 20  0001 C CNN
F 1 "+5V" H 8900 965 30  0000 C CNN
F 2 "" H 8900 875 60  0000 C CNN
F 3 "" H 8900 875 60  0000 C CNN
	1    8900 875 
	1    0    0    -1  
$EndComp
Wire Wire Line
	9500 1425 9725 1425
Wire Wire Line
	9500 1575 9725 1575
Text Label 9575 1575 0    40   ~ 0
DP
Text Label 9575 1425 0    40   ~ 0
DM
NoConn ~ 9725 1725
Wire Wire Line
	9725 1875 9400 1875
Wire Wire Line
	9400 1425 9400 2075
$Comp
L GND #PWR010
U 1 1 5BF3F00C
P 9400 2075
F 0 "#PWR010" H 9400 2075 30  0001 C CNN
F 1 "GND" H 9400 2005 30  0001 C CNN
F 2 "" H 9400 2075 60  0000 C CNN
F 3 "" H 9400 2075 60  0000 C CNN
	1    9400 2075
	1    0    0    -1  
$EndComp
$Comp
L 78L05 U4
U 1 1 5BF3F012
P 9150 3100
F 0 "U4" H 9150 2750 60  0000 C CNN
F 1 "78L05" H 9150 3400 60  0000 C CNN
F 2 "~" H 9150 3100 60  0000 C CNN
F 3 "~" H 9150 3100 60  0000 C CNN
	1    9150 3100
	1    0    0    -1  
$EndComp
$Comp
L R-SMALL R8
U 1 1 5BF3F018
P 9150 1275
F 0 "R8" H 9050 1375 60  0000 C CNN
F 1 "4k7" H 9150 1275 40  0000 C CNN
F 2 "~" H 9150 1275 60  0000 C CNN
F 3 "~" H 9150 1275 60  0000 C CNN
	1    9150 1275
	1    0    0    -1  
$EndComp
$Comp
L R-SMALL R9
U 1 1 5BF3F01E
P 9150 1425
F 0 "R9" H 9050 1300 60  0000 C CNN
F 1 "10k" H 9150 1425 40  0000 C CNN
F 2 "~" H 9150 1425 60  0000 C CNN
F 3 "~" H 9150 1425 60  0000 C CNN
	1    9150 1425
	1    0    0    -1  
$EndComp
Wire Wire Line
	9000 1275 8925 1275
Wire Wire Line
	8925 1275 8925 1425
Wire Wire Line
	8925 1425 9000 1425
Wire Wire Line
	8575 1350 8925 1350
Connection ~ 8925 1350
Text Label 8675 1350 0    40   ~ 0
Vbus
Wire Wire Line
	9300 1425 9400 1425
Connection ~ 9400 1875
Connection ~ 9550 1275
$Comp
L CONN-3.5MM J4
U 1 1 5BF3F03C
P 10800 3100
F 0 "J4" H 11000 3100 60  0000 C CNN
F 1 "CONN-3.5MM" H 10800 2950 24  0000 C CNN
F 2 "conn-3.5mm" H 10800 2900 20  0001 C CNN
F 3 "~" H 10800 3100 60  0000 C CNN
	1    10800 3100
	1    0    0    1   
$EndComp
Wire Wire Line
	8800 3050 8700 3050
Wire Wire Line
	8700 3050 8700 3575
Wire Wire Line
	8800 3150 8700 3150
Connection ~ 8700 3150
Wire Wire Line
	9500 3050 9625 3050
Wire Wire Line
	9625 3500 8700 3500
$Comp
L GND #PWR011
U 1 1 5BF3F048
P 8700 3575
F 0 "#PWR011" H 8700 3575 30  0001 C CNN
F 1 "GND" H 8700 3505 30  0001 C CNN
F 2 "" H 8700 3575 60  0000 C CNN
F 3 "" H 8700 3575 60  0000 C CNN
	1    8700 3575
	1    0    0    -1  
$EndComp
Connection ~ 8700 3500
Wire Wire Line
	9500 3150 9625 3150
Wire Wire Line
	9625 3050 9625 3500
Connection ~ 9625 3150
Wire Wire Line
	10100 3150 10600 3150
Wire Wire Line
	10100 3150 10100 3500
$Comp
L GND #PWR012
U 1 1 5BF3F054
P 10100 3500
F 0 "#PWR012" H 10100 3500 30  0001 C CNN
F 1 "GND" H 10100 3430 30  0001 C CNN
F 2 "" H 10100 3500 60  0000 C CNN
F 3 "" H 10100 3500 60  0000 C CNN
	1    10100 3500
	1    0    0    -1  
$EndComp
Wire Wire Line
	9500 2950 10100 2950
Wire Wire Line
	10100 2950 10100 3050
Wire Wire Line
	10100 3050 10600 3050
Wire Wire Line
	8700 2950 8700 2825
$Comp
L +5V #PWR013
U 1 1 5BF3F067
P 8700 2825
F 0 "#PWR013" H 8700 2915 20  0001 C CNN
F 1 "+5V" H 8700 2915 30  0000 C CNN
F 2 "" H 8700 2825 60  0000 C CNN
F 3 "" H 8700 2825 60  0000 C CNN
	1    8700 2825
	1    0    0    -1  
$EndComp
Wire Notes Line
	11175 600  8500 600 
Wire Notes Line
	8500 600  8500 2450
Wire Notes Line
	8500 2450 11175 2450
Wire Notes Line
	11175 2450 11175 600 
Wire Notes Line
	8500 2550 8500 3900
Wire Notes Line
	8500 3900 11150 3900
Wire Notes Line
	11150 3900 11150 2550
Wire Notes Line
	11150 2550 8500 2550
Wire Wire Line
	10825 1275 10875 1275
Wire Wire Line
	10875 1275 10875 1875
Wire Wire Line
	10875 1875 10825 1875
Wire Wire Line
	10825 1725 10875 1725
Connection ~ 10875 1725
Wire Wire Line
	10825 1425 10875 1425
Connection ~ 10875 1425
Text Notes 8625 2400 0    60   ~ 12
USB and supply
Text Notes 8575 3850 0    60   ~ 12
Optional supply
Wire Wire Line
	10525 4375 10400 4375
Wire Wire Line
	10525 4275 10525 4375
$Comp
L +3.3V #PWR014
U 1 1 5BF3F086
P 10525 4275
F 0 "#PWR014" H 10525 4235 30  0001 C CNN
F 1 "+3.3V" H 10525 4385 30  0000 C CNN
F 2 "" H 10525 4275 60  0000 C CNN
F 3 "" H 10525 4275 60  0000 C CNN
	1    10525 4275
	1    0    0    -1  
$EndComp
Wire Wire Line
	10400 4425 10525 4425
Wire Wire Line
	10525 4425 10525 4875
$Comp
L GND #PWR015
U 1 1 5BF3F08E
P 10525 4875
F 0 "#PWR015" H 10525 4875 30  0001 C CNN
F 1 "GND" H 10525 4805 30  0001 C CNN
F 2 "" H 10525 4875 60  0000 C CNN
F 3 "" H 10525 4875 60  0000 C CNN
	1    10525 4875
	1    0    0    -1  
$EndComp
Wire Wire Line
	10400 4475 10625 4475
Wire Wire Line
	10400 4525 10700 4525
Wire Wire Line
	10400 4575 10850 4575
Wire Wire Line
	10400 4625 11050 4625
Text Label 10725 4575 0    40   ~ 0
SCL
Text Label 10900 4625 0    40   ~ 0
SDA
$Comp
L AP2111H U3
U 1 1 5BF3F0A6
P 7975 1125
F 0 "U3" H 7975 1275 60  0000 C CNN
F 1 "AP2111H" H 7975 1525 60  0000 C CNN
F 2 "~" H 7975 1125 60  0000 C CNN
F 3 "~" H 7975 1125 60  0000 C CNN
	1    7975 1125
	-1   0    0    -1  
$EndComp
$Comp
L GND #PWR016
U 1 1 5BF3F0AC
P 8175 1575
F 0 "#PWR016" H 8175 1575 30  0001 C CNN
F 1 "GND" H 8175 1505 30  0001 C CNN
F 2 "" H 8175 1575 60  0000 C CNN
F 3 "" H 8175 1575 60  0000 C CNN
	1    8175 1575
	-1   0    0    -1  
$EndComp
$Comp
L C C4
U 1 1 5BF3F0B8
P 7675 1875
F 0 "C4" H 7675 1975 40  0000 L CNN
F 1 "22uF" H 7681 1790 40  0000 L CNN
F 2 "~" H 7713 1725 30  0000 C CNN
F 3 "~" H 7675 1875 60  0000 C CNN
	1    7675 1875
	-1   0    0    -1  
$EndComp
$Comp
L GND #PWR017
U 1 1 5BF3F0BE
P 7675 2075
F 0 "#PWR017" H 7675 2075 30  0001 C CNN
F 1 "GND" H 7675 2005 30  0001 C CNN
F 2 "" H 7675 2075 60  0000 C CNN
F 3 "" H 7675 2075 60  0000 C CNN
	1    7675 2075
	-1   0    0    -1  
$EndComp
$Comp
L C C3
U 1 1 5BF3F0C4
P 7400 1750
F 0 "C3" H 7400 1850 40  0000 L CNN
F 1 "22uF" H 7406 1665 40  0000 L CNN
F 2 "~" H 7438 1600 30  0000 C CNN
F 3 "~" H 7400 1750 60  0000 C CNN
	1    7400 1750
	-1   0    0    -1  
$EndComp
$Comp
L GND #PWR018
U 1 1 5BF3F0CA
P 7400 1950
F 0 "#PWR018" H 7400 1950 30  0001 C CNN
F 1 "GND" H 7400 1880 30  0001 C CNN
F 2 "" H 7400 1950 60  0000 C CNN
F 3 "" H 7400 1950 60  0000 C CNN
	1    7400 1950
	-1   0    0    -1  
$EndComp
$Comp
L +3.3V #PWR019
U 1 1 5BF3F0D0
P 8175 1950
F 0 "#PWR019" H 8175 1910 30  0001 C CNN
F 1 "+3.3V" H 8175 2060 30  0000 C CNN
F 2 "" H 8175 1950 60  0001 C CNN
F 3 "" H 8175 1950 60  0001 C CNN
	1    8175 1950
	1    0    0    -1  
$EndComp
Text Notes 7175 2375 0    60   ~ 12
3.3V Regulator
$Comp
L +5V #PWR020
U 1 1 5BF3F0D7
P 7525 900
F 0 "#PWR020" H 7525 990 20  0001 C CNN
F 1 "+5V" H 7525 990 30  0000 C CNN
F 2 "" H 7525 900 60  0000 C CNN
F 3 "" H 7525 900 60  0000 C CNN
	1    7525 900 
	1    0    0    -1  
$EndComp
Wire Wire Line
	7775 1475 7775 1375
Wire Wire Line
	7400 1475 7775 1475
Wire Wire Line
	7525 1275 7525 1475
Connection ~ 7525 1475
Wire Wire Line
	7975 1675 7675 1675
Connection ~ 7975 1675
Wire Wire Line
	8175 2050 8175 1950
Wire Wire Line
	8175 1375 8175 1575
Wire Notes Line
	7100 600  8425 600 
Wire Notes Line
	8425 2450 7100 2450
Wire Wire Line
	7400 1475 7400 1550
Wire Wire Line
	7975 2050 8175 2050
Wire Wire Line
	7975 1375 7975 2050
Wire Notes Line
	7100 2450 7100 600 
Wire Notes Line
	8425 600  8425 2450
Wire Wire Line
	7525 975  7525 900 
$Comp
L LED D3
U 1 1 5BF3F12F
P 1575 5725
F 0 "D3" H 1975 5725 50  0000 C CNN
F 1 "green" H 1575 5625 50  0000 C CNN
F 2 "~" H 1575 5725 60  0000 C CNN
F 3 "~" H 1575 5725 60  0000 C CNN
	1    1575 5725
	1    0    0    -1  
$EndComp
$Comp
L LED D4
U 1 1 5BF3F135
P 1575 5950
F 0 "D4" H 1975 5950 50  0000 C CNN
F 1 "orange" H 1575 5850 50  0000 C CNN
F 2 "~" H 1575 5950 60  0000 C CNN
F 3 "~" H 1575 5950 60  0000 C CNN
	1    1575 5950
	1    0    0    -1  
$EndComp
$Comp
L R-SMALL R12
U 1 1 5BF3F13B
P 1200 5725
F 0 "R12" H 1100 5825 60  0000 C CNN
F 1 "470" H 1200 5725 40  0000 C CNN
F 2 "~" H 1200 5725 60  0000 C CNN
F 3 "~" H 1200 5725 60  0000 C CNN
	1    1200 5725
	1    0    0    -1  
$EndComp
$Comp
L R-SMALL R13
U 1 1 5BF3F141
P 1200 5950
F 0 "R13" H 1100 6050 60  0000 C CNN
F 1 "470" H 1200 5950 40  0000 C CNN
F 2 "~" H 1200 5950 60  0000 C CNN
F 3 "~" H 1200 5950 60  0000 C CNN
	1    1200 5950
	1    0    0    -1  
$EndComp
$Comp
L GND #PWR021
U 1 1 5BF3F147
P 1875 6050
F 0 "#PWR021" H 1875 6050 30  0001 C CNN
F 1 "GND" H 1875 5980 30  0001 C CNN
F 2 "" H 1875 6050 60  0000 C CNN
F 3 "" H 1875 6050 60  0000 C CNN
	1    1875 6050
	1    0    0    -1  
$EndComp
Wire Wire Line
	1875 5950 1775 5950
Connection ~ 1875 5950
Wire Wire Line
	1050 5725 775  5725
Text Label 825  5725 0    40   ~ 0
DIAG2
Wire Wire Line
	1050 5950 775  5950
Text Label 825  5950 0    40   ~ 0
DIAG3
Wire Wire Line
	1375 5725 1350 5725
Wire Wire Line
	1350 5950 1375 5950
Text Notes 800  6375 0    60   ~ 12
Misc-out
Wire Wire Line
	1775 5725 1875 5725
Wire Wire Line
	1875 5500 1875 6050
Wire Notes Line
	575  5175 2125 5175
Wire Notes Line
	2125 5175 2125 6475
Wire Notes Line
	2125 6475 575  6475
Wire Notes Line
	575  6475 575  5175
Wire Notes Line
	9825 4000 11150 4000
Wire Notes Line
	9825 5850 11150 5850
$Comp
L BREADBOARD-6X6 J8
U 1 1 5BF3F1F8
P 10725 5225
F 0 "J8" H 10850 5400 40  0000 C CNN
F 1 "BREADBOARD-6X6" H 10725 5050 30  0000 C CNN
F 2 "~" H 10850 5100 60  0000 C CNN
F 3 "~" H 10850 5100 60  0000 C CNN
	1    10725 5225
	1    0    0    -1  
$EndComp
$Comp
L HOLE-3MM H1
U 1 1 5BF3F259
P 750 4625
F 0 "H1" H 950 4475 60  0000 C CNN
F 1 "3mm" H 750 4825 60  0000 C CNN
F 2 "~" H 750 4625 60  0000 C CNN
F 3 "~" H 750 4625 60  0000 C CNN
	1    750  4625
	1    0    0    -1  
$EndComp
$Comp
L HOLE-3MM H2
U 1 1 5BF3F25F
P 1200 4625
F 0 "H2" H 1400 4475 60  0000 C CNN
F 1 "3mm" H 1200 4825 60  0000 C CNN
F 2 "~" H 1200 4625 60  0000 C CNN
F 3 "~" H 1200 4625 60  0000 C CNN
	1    1200 4625
	1    0    0    -1  
$EndComp
$Comp
L HOLE-3MM H3
U 1 1 5BF3F265
P 1650 4625
F 0 "H3" H 1850 4475 60  0000 C CNN
F 1 "3mm" H 1650 4825 60  0000 C CNN
F 2 "~" H 1650 4625 60  0000 C CNN
F 3 "~" H 1650 4625 60  0000 C CNN
	1    1650 4625
	1    0    0    -1  
$EndComp
$Comp
L HOLE-3MM H4
U 1 1 5BF3F26B
P 2075 4625
F 0 "H4" H 2275 4475 60  0000 C CNN
F 1 "3mm" H 2075 4825 60  0000 C CNN
F 2 "~" H 2075 4625 60  0000 C CNN
F 3 "~" H 2075 4625 60  0000 C CNN
	1    2075 4625
	1    0    0    -1  
$EndComp
Wire Wire Line
	750  4875 750  4625
Wire Wire Line
	750  4875 2075 4875
Wire Wire Line
	2075 4625 2075 4925
$Comp
L GND #PWR022
U 1 1 5BF3F274
P 2075 4925
F 0 "#PWR022" H 2075 4925 30  0001 C CNN
F 1 "GND" H 2075 4855 30  0001 C CNN
F 2 "" H 2075 4925 60  0000 C CNN
F 3 "" H 2075 4925 60  0000 C CNN
	1    2075 4925
	1    0    0    -1  
$EndComp
Wire Wire Line
	1200 4625 1200 4875
Connection ~ 1200 4875
Wire Wire Line
	1650 4625 1650 4875
Connection ~ 1650 4875
Connection ~ 2075 4875
Text Notes 9900 5775 0    60   ~ 12
Playground
$Comp
L R-SMALL R2
U 1 1 5BF3F292
P 950 1250
F 0 "R2" H 900 1150 60  0000 C CNN
F 1 "1k5" H 950 1250 40  0000 C CNN
F 2 "~" H 950 1250 60  0000 C CNN
F 3 "~" H 950 1250 60  0000 C CNN
	1    950  1250
	1    0    0    -1  
$EndComp
$Comp
L R-SMALL R1
U 1 1 5BF3F298
P 950 1150
F 0 "R1" H 875 1300 60  0000 C CNN
F 1 "1k5" H 950 1150 40  0000 C CNN
F 2 "~" H 950 1150 60  0000 C CNN
F 3 "~" H 950 1150 60  0000 C CNN
	1    950  1150
	1    0    0    -1  
$EndComp
$Comp
L +3.3V #PWR023
U 1 1 5BF3F29E
P 700 1125
F 0 "#PWR023" H 700 1085 30  0001 C CNN
F 1 "+3.3V" H 700 1235 30  0000 C CNN
F 2 "" H 700 1125 60  0001 C CNN
F 3 "" H 700 1125 60  0001 C CNN
	1    700  1125
	1    0    0    -1  
$EndComp
Wire Wire Line
	800  1150 800  1250
Wire Wire Line
	700  1200 800  1200
Wire Wire Line
	700  1125 700  1200
Connection ~ 800  1200
$Comp
L STRIP-3 J1
U 1 1 5BF3F2A8
P 1275 750
F 0 "J1" H 1025 750 60  0000 C CNN
F 1 "STRIP-3" H 1275 850 60  0000 C CNN
F 2 "~" H 1225 750 60  0000 C CNN
F 3 "~" H 1225 750 60  0000 C CNN
	1    1275 750 
	1    0    0    -1  
$EndComp
Wire Wire Line
	1275 800  1275 850 
$Comp
L GND #PWR024
U 1 1 5BF3F2AF
P 1275 850
F 0 "#PWR024" H 1275 850 30  0001 C CNN
F 1 "GND" H 1275 780 30  0001 C CNN
F 2 "" H 1275 850 60  0000 C CNN
F 3 "" H 1275 850 60  0000 C CNN
	1    1275 850 
	1    0    0    -1  
$EndComp
Wire Wire Line
	1175 800  1175 1150
Connection ~ 1175 1150
Wire Wire Line
	1375 800  1375 1250
Connection ~ 1375 1250
Wire Wire Line
	10400 4675 10625 4675
Wire Wire Line
	10400 4725 10800 4725
Wire Wire Line
	10400 4775 10950 4775
Wire Wire Line
	10400 4825 10750 4825
Text Label 10550 4675 0    40   ~ 0
MISO
Text Label 10675 4725 0    40   ~ 0
MOSI
Text Label 10825 4775 0    40   ~ 0
SCK
Text Label 10600 4825 0    40   ~ 0
SSEL
$Comp
L FLAT20 J3
U 1 1 5BF3F2C1
P 6525 1625
F 0 "J3" H 6525 1050 60  0000 C CNN
F 1 "JTAG" H 6525 2300 60  0000 C CNN
F 2 "~" H 6525 1975 60  0000 C CNN
F 3 "~" H 6525 1975 60  0000 C CNN
	1    6525 1625
	1    0    0    -1  
$EndComp
Wire Wire Line
	6325 1175 6325 1025
Wire Wire Line
	6325 1025 6725 1025
Wire Wire Line
	6725 900  6725 1175
Connection ~ 6725 1025
$Comp
L +3.3V #PWR025
U 1 1 5BF3F2CB
P 6725 900
F 0 "#PWR025" H 6725 860 30  0001 C CNN
F 1 "+3.3V" H 6725 1010 30  0000 C CNN
F 2 "" H 6725 900 60  0000 C CNN
F 3 "" H 6725 900 60  0000 C CNN
	1    6725 900 
	1    0    0    -1  
$EndComp
Wire Wire Line
	6725 1275 6825 1275
Wire Wire Line
	6825 1275 6825 2150
$Comp
L GND #PWR026
U 1 1 5BF3F2D3
P 6825 2150
F 0 "#PWR026" H 6825 2150 30  0001 C CNN
F 1 "GND" H 6825 2080 30  0001 C CNN
F 2 "" H 6825 2150 60  0000 C CNN
F 3 "" H 6825 2150 60  0000 C CNN
	1    6825 2150
	1    0    0    -1  
$EndComp
Wire Wire Line
	6825 2075 6725 2075
Connection ~ 6825 2075
Wire Wire Line
	6725 1975 6825 1975
Connection ~ 6825 1975
Wire Wire Line
	6825 1875 6725 1875
Connection ~ 6825 1875
Wire Wire Line
	6725 1775 6825 1775
Connection ~ 6825 1775
Wire Wire Line
	6825 1675 6725 1675
Connection ~ 6825 1675
Wire Wire Line
	6725 1575 6825 1575
Connection ~ 6825 1575
Wire Wire Line
	6825 1475 6725 1475
Connection ~ 6825 1475
Wire Wire Line
	6725 1375 6825 1375
Connection ~ 6825 1375
Wire Wire Line
	6100 1475 6325 1475
Text Label 6125 1275 0    40   ~ 0
TRST
Text Label 6125 1375 0    40   ~ 0
TDI
Text Label 6125 1475 0    40   ~ 0
TMS
Text Label 6125 1575 0    40   ~ 0
TCK
Text Label 6125 1775 0    40   ~ 0
TDO
NoConn ~ 6325 1675
NoConn ~ 6325 1975
NoConn ~ 6325 2075
Wire Wire Line
	725  2450 1450 2450
Wire Wire Line
	1100 2250 1450 2250
Wire Wire Line
	725  2350 1450 2350
Text Label 1200 2550 0    40   ~ 0
TRST
Text Label 1200 2450 0    40   ~ 0
TDO
Text Label 1200 2350 0    40   ~ 0
TMS
Text Label 1200 2250 0    40   ~ 0
TDI
Wire Wire Line
	6100 1275 6325 1275
Wire Wire Line
	6325 1375 6100 1375
Wire Wire Line
	6100 1575 6325 1575
Wire Wire Line
	6100 1775 6325 1775
Text Label 1200 2150 0    40   ~ 0
TCK
Wire Wire Line
	725  2650 1450 2650
Wire Notes Line
	7000 600  5850 600 
Wire Notes Line
	5850 600  5850 2450
Wire Notes Line
	5850 2450 7000 2450
Wire Notes Line
	7000 2450 7000 600 
Text Notes 5925 2375 0    60   ~ 12
JTAG
$Comp
L LPC11U24FBD48 U1
U 1 1 5BF3F328
P 2650 2450
F 0 "U1" H 1600 3900 50  0000 C CNN
F 1 "LPC11U24FBD48" H 1850 1230 50  0000 C CNN
F 2 "LQFP48" H 3600 1250 50  0000 C CNN
F 3 "~" H 2650 975 50  0001 C CNN
	1    2650 2450
	1    0    0    -1  
$EndComp
NoConn ~ 10625 4475
NoConn ~ 10700 4525
Text Label 1200 2850 0    40   ~ 0
SSEL
Wire Wire Line
	1100 2850 1450 2850
$Comp
L CSMALL C6
U 1 1 5BF3F35F
P 9825 3250
F 0 "C6" H 9850 3300 30  0000 L CNN
F 1 "22uF" H 9850 3200 30  0000 L CNN
F 2 "~" H 9825 3250 60  0000 C CNN
F 3 "~" H 9825 3250 60  0000 C CNN
	1    9825 3250
	1    0    0    -1  
$EndComp
Wire Wire Line
	9825 3150 9825 2950
Connection ~ 9825 2950
Wire Wire Line
	9825 3350 9825 3500
$Comp
L GND #PWR027
U 1 1 5BF3F368
P 9825 3500
F 0 "#PWR027" H 9825 3500 30  0001 C CNN
F 1 "GND" H 9825 3430 30  0001 C CNN
F 2 "" H 9825 3500 60  0000 C CNN
F 3 "" H 9825 3500 60  0000 C CNN
	1    9825 3500
	1    0    0    -1  
$EndComp
Wire Wire Line
	6100 1875 6325 1875
Text Label 6125 1875 0    40   ~ 0
RST*
Wire Wire Line
	725  2750 1450 2750
Wire Wire Line
	725  3150 1450 3150
Wire Wire Line
	725  3350 1450 3350
$Comp
L R-SMALL R10
U 1 1 5BF3F3DB
P 9900 2250
F 0 "R10" H 10000 2350 60  0000 C CNN
F 1 "1k5" H 9900 2250 40  0000 C CNN
F 2 "~" H 9900 2250 60  0000 C CNN
F 3 "~" H 9900 2250 60  0000 C CNN
	1    9900 2250
	1    0    0    -1  
$EndComp
$Comp
L LED D1
U 1 1 5BF3F3E1
P 10425 2250
F 0 "D1" H 10425 2350 50  0000 C CNN
F 1 "red" H 10425 2150 50  0000 C CNN
F 2 "~" H 10425 2250 60  0000 C CNN
F 3 "~" H 10425 2250 60  0000 C CNN
	1    10425 2250
	1    0    0    -1  
$EndComp
Wire Wire Line
	9700 2175 9700 2250
Wire Wire Line
	9700 2250 9750 2250
Wire Wire Line
	10050 2250 10225 2250
Wire Wire Line
	10625 2250 10725 2250
Wire Wire Line
	10725 2250 10725 2300
$Comp
L GND #PWR028
U 1 1 5BF3F3F2
P 10725 2300
F 0 "#PWR028" H 10725 2300 30  0001 C CNN
F 1 "GND" H 10725 2230 30  0001 C CNN
F 2 "" H 10725 2300 60  0000 C CNN
F 3 "" H 10725 2300 60  0000 C CNN
	1    10725 2300
	1    0    0    -1  
$EndComp
$Comp
L 24AA64F U6
U 1 1 5BF4039B
P 1225 7000
F 0 "U6" H 1225 6700 60  0000 C CNN
F 1 "24AA64F" H 1225 7250 60  0000 C CNN
F 2 "~" H 1225 7000 60  0000 C CNN
F 3 "~" H 1225 7000 60  0000 C CNN
	1    1225 7000
	1    0    0    -1  
$EndComp
Wire Wire Line
	875  6850 775  6850
Wire Wire Line
	775  6850 775  7225
$Comp
L GND #PWR029
U 1 1 5BF403A3
P 775 7225
F 0 "#PWR029" H 775 7225 30  0001 C CNN
F 1 "GND" H 775 7155 30  0001 C CNN
F 2 "" H 775 7225 60  0000 C CNN
F 3 "" H 775 7225 60  0000 C CNN
	1    775  7225
	1    0    0    -1  
$EndComp
Wire Wire Line
	875  6950 775  6950
Connection ~ 775  6950
Wire Wire Line
	875  7050 775  7050
Connection ~ 775  7050
Wire Wire Line
	875  7150 775  7150
Connection ~ 775  7150
Wire Wire Line
	1575 6950 1650 6950
Wire Wire Line
	1650 6950 1650 7225
$Comp
L GND #PWR030
U 1 1 5BF403B1
P 1650 7225
F 0 "#PWR030" H 1650 7225 30  0001 C CNN
F 1 "GND" H 1650 7155 30  0001 C CNN
F 2 "" H 1650 7225 60  0000 C CNN
F 3 "" H 1650 7225 60  0000 C CNN
	1    1650 7225
	1    0    0    -1  
$EndComp
Wire Wire Line
	1575 7050 1850 7050
Text Label 1725 7050 0    40   ~ 0
SCL
Wire Wire Line
	1575 7150 1850 7150
Text Label 1725 7150 0    40   ~ 0
SDA
Wire Wire Line
	1800 6850 1800 6775
$Comp
L +3.3V #PWR031
U 1 1 5BF403C4
P 1800 6775
F 0 "#PWR031" H 1800 6735 30  0001 C CNN
F 1 "+3.3V" H 1800 6885 30  0000 C CNN
F 2 "" H 1800 6775 60  0000 C CNN
F 3 "" H 1800 6775 60  0000 C CNN
	1    1800 6775
	1    0    0    -1  
$EndComp
Wire Notes Line
	575  6575 2125 6575
Wire Notes Line
	2125 6575 2125 7675
Wire Notes Line
	2125 7675 575  7675
Wire Notes Line
	575  7675 575  6575
Text Notes 700  7600 0    60   ~ 12
EEPROM, just in case
Wire Notes Line
	11150 5850 11150 4000
Wire Notes Line
	9825 4000 9825 5850
$Comp
L LED D2
U 1 1 5BF40917
P 1575 5500
F 0 "D2" H 1975 5500 50  0000 C CNN
F 1 "yellow" H 1575 5400 50  0000 C CNN
F 2 "~" H 1575 5500 60  0000 C CNN
F 3 "~" H 1575 5500 60  0000 C CNN
	1    1575 5500
	1    0    0    -1  
$EndComp
$Comp
L R-SMALL R11
U 1 1 5BF4091D
P 1200 5500
F 0 "R11" H 1100 5600 60  0000 C CNN
F 1 "470" H 1200 5500 40  0000 C CNN
F 2 "~" H 1200 5500 60  0000 C CNN
F 3 "~" H 1200 5500 60  0000 C CNN
	1    1200 5500
	1    0    0    -1  
$EndComp
Wire Wire Line
	1050 5500 775  5500
Text Label 825  5500 0    40   ~ 0
DIAG1
Wire Wire Line
	1375 5500 1350 5500
Wire Wire Line
	1775 5500 1875 5500
Connection ~ 1875 5725
Connection ~ 2750 875 
Connection ~ 4075 875 
$Comp
L FLAT10 J5
U 1 1 5BF40FC7
P 9150 4700
F 0 "J5" H 9150 4400 60  0000 C CNN
F 1 "TDC-in" H 9150 5000 60  0000 C CNN
F 2 "~" H 9150 4800 60  0000 C CNN
F 3 "~" H 9150 4800 60  0000 C CNN
	1    9150 4700
	1    0    0    -1  
$EndComp
Wire Wire Line
	8850 4500 8725 4500
Wire Wire Line
	8725 4500 8725 4400
$Comp
L +3.3V #PWR032
U 1 1 5BF410D3
P 8725 4400
F 0 "#PWR032" H 8725 4360 30  0001 C CNN
F 1 "+3.3V" H 8725 4510 30  0000 C CNN
F 2 "" H 8725 4400 60  0000 C CNN
F 3 "" H 8725 4400 60  0000 C CNN
	1    8725 4400
	1    0    0    -1  
$EndComp
$Comp
L GND #PWR033
U 1 1 5BF411E2
P 9600 4425
F 0 "#PWR033" H 9600 4425 30  0001 C CNN
F 1 "GND" H 9600 4355 30  0001 C CNN
F 2 "" H 9600 4425 60  0000 C CNN
F 3 "" H 9600 4425 60  0000 C CNN
	1    9600 4425
	1    0    0    -1  
$EndComp
Wire Wire Line
	8850 4600 8650 4600
Text Label 8675 4600 0    40   ~ 0
TDC0
Wire Wire Line
	8850 4700 8650 4700
Text Label 8675 4700 0    40   ~ 0
TDC2
Wire Wire Line
	8850 4800 8650 4800
Text Label 8675 4800 0    40   ~ 0
TDC4
Wire Wire Line
	8850 4900 8650 4900
Text Label 8675 4900 0    40   ~ 0
TDC6
Wire Wire Line
	9650 4600 9450 4600
Text Label 9475 4600 0    40   ~ 0
TDC1
Wire Wire Line
	9650 4700 9450 4700
Text Label 9475 4700 0    40   ~ 0
TDC3
Wire Wire Line
	9650 4800 9450 4800
Text Label 9475 4800 0    40   ~ 0
TDC5
Wire Wire Line
	9650 4900 9450 4900
Text Label 9475 4900 0    40   ~ 0
TDC7
$Comp
L STRIP-2 J6
U 1 1 5BF41310
P 9125 5250
F 0 "J6" H 8925 5250 60  0000 C CNN
F 1 "PPS-in" H 9125 5350 60  0000 C CNN
F 2 "~" H 9125 5250 60  0000 C CNN
F 3 "~" H 9125 5250 60  0000 C CNN
	1    9125 5250
	1    0    0    -1  
$EndComp
Wire Wire Line
	9075 5300 9075 5375
$Comp
L GND #PWR034
U 1 1 5BF41438
P 9075 5375
F 0 "#PWR034" H 9075 5375 30  0001 C CNN
F 1 "GND" H 9075 5305 30  0001 C CNN
F 2 "" H 9075 5375 60  0000 C CNN
F 3 "" H 9075 5375 60  0000 C CNN
	1    9075 5375
	1    0    0    -1  
$EndComp
Wire Wire Line
	9175 5300 9175 5350
Wire Wire Line
	9175 5350 9450 5350
Text Label 9275 5350 0    40   ~ 0
PPS
Wire Wire Line
	875  3925 1400 3925
Wire Wire Line
	875  3825 1400 3825
$Comp
L STRIP-3 J2
U 1 1 5BF41553
P 825 3925
F 0 "J2" H 575 3925 60  0000 C CNN
F 1 "UART-3v3" H 825 4025 60  0000 C CNN
F 2 "~" H 775 3925 60  0000 C CNN
F 3 "~" H 775 3925 60  0000 C CNN
	1    825  3925
	0    -1   -1   0   
$EndComp
Wire Wire Line
	875  4025 950  4025
Wire Wire Line
	950  4025 950  4100
$Comp
L GND #PWR035
U 1 1 5BF4155B
P 950 4100
F 0 "#PWR035" H 950 4100 30  0001 C CNN
F 1 "GND" H 950 4030 30  0001 C CNN
F 2 "" H 950 4100 60  0000 C CNN
F 3 "" H 950 4100 60  0000 C CNN
	1    950  4100
	1    0    0    -1  
$EndComp
Text Label 1275 3825 0    40   ~ 0
RXD
Text Label 1275 3925 0    40   ~ 0
TXD
Text Label 800  2750 0    40   ~ 0
PPS
Wire Wire Line
	725  2550 1450 2550
Wire Wire Line
	725  3250 1450 3250
Wire Wire Line
	725  3450 1450 3450
Text Label 800  2350 0    40   ~ 0
TDC0
Text Label 800  2450 0    40   ~ 0
TDC1
Text Label 800  2550 0    40   ~ 0
TDC2
Text Label 800  2650 0    40   ~ 0
TDC3
Text Label 800  3150 0    40   ~ 0
TDC4
Text Label 800  3250 0    40   ~ 0
TDC5
Text Label 800  3350 0    40   ~ 0
TDC6
Text Label 800  3450 0    40   ~ 0
TDC7
NoConn ~ 3850 1150
NoConn ~ 3850 1250
NoConn ~ 3850 1450
NoConn ~ 3850 2050
NoConn ~ 3850 2250
Text Label 3950 1650 0    40   ~ 0
SCK
Wire Wire Line
	3850 1650 4200 1650
Wire Wire Line
	8700 2950 8800 2950
$Comp
L R-SMALL R14
U 1 1 5BF42910
P 7525 1125
F 0 "R14" H 7425 1225 60  0000 C CNN
F 1 "1R0" H 7525 1125 40  0000 C CNN
F 2 "~" H 7525 1125 60  0000 C CNN
F 3 "~" H 7525 1125 60  0000 C CNN
	1    7525 1125
	0    -1   -1   0   
$EndComp
Wire Wire Line
	9450 4500 9450 4350
Wire Wire Line
	9450 4350 9600 4350
Wire Wire Line
	9600 4350 9600 4425
$Comp
L MCP4728 U7
U 1 1 5BF43A88
P 7700 5425
F 0 "U7" H 7700 5125 60  0000 C CNN
F 1 "MCP4728" H 7700 5725 60  0000 C CNN
F 2 "~" H 7700 5475 60  0000 C CNN
F 3 "~" H 7700 5475 60  0000 C CNN
	1    7700 5425
	1    0    0    -1  
$EndComp
Wire Wire Line
	7300 5225 7350 5225
Wire Wire Line
	7300 4975 7300 5225
$Comp
L CSMALL C5
U 1 1 5BF43A90
P 7175 5125
F 0 "C5" H 7200 5175 30  0000 L CNN
F 1 "100n" H 7200 5075 30  0000 L CNN
F 2 "~" H 7175 5125 60  0000 C CNN
F 3 "~" H 7175 5125 60  0000 C CNN
	1    7175 5125
	1    0    0    -1  
$EndComp
Wire Wire Line
	7175 5025 7300 5025
Connection ~ 7300 5025
$Comp
L +3.3V #PWR036
U 1 1 5BF43A98
P 7300 4975
F 0 "#PWR036" H 7300 4935 30  0001 C CNN
F 1 "+3.3V" H 7300 5085 30  0000 C CNN
F 2 "" H 7300 4975 60  0000 C CNN
F 3 "" H 7300 4975 60  0000 C CNN
	1    7300 4975
	1    0    0    -1  
$EndComp
$Comp
L GND #PWR037
U 1 1 5BF43A9E
P 7175 5225
F 0 "#PWR037" H 7175 5225 30  0001 C CNN
F 1 "GND" H 7175 5155 30  0001 C CNN
F 2 "" H 7175 5225 60  0000 C CNN
F 3 "" H 7175 5225 60  0000 C CNN
	1    7175 5225
	1    0    0    -1  
$EndComp
Wire Wire Line
	8050 5225 8325 5225
Wire Wire Line
	8325 5225 8325 5375
$Comp
L GND #PWR038
U 1 1 5BF43AA6
P 8325 5375
F 0 "#PWR038" H 8325 5375 30  0001 C CNN
F 1 "GND" H 8325 5305 30  0001 C CNN
F 2 "" H 8325 5375 60  0000 C CNN
F 3 "" H 8325 5375 60  0000 C CNN
	1    8325 5375
	1    0    0    -1  
$EndComp
Wire Wire Line
	8200 5625 8050 5625
Wire Wire Line
	8200 5525 8050 5525
Wire Wire Line
	8200 5325 8050 5325
Text Label 8100 5625 0    40   ~ 0
VC
Wire Wire Line
	7150 5325 7350 5325
Wire Wire Line
	7150 5425 7350 5425
Text Label 7225 5325 0    40   ~ 0
SCL
Text Label 7225 5425 0    40   ~ 0
SDA
NoConn ~ 7350 5525
NoConn ~ 7350 5625
NoConn ~ 8200 5325
NoConn ~ 8200 5525
$Comp
L TS3702 U8
U 2 1 5BF43ABE
P 4775 6500
F 0 "U8" H 4950 6600 60  0000 C CNN
F 1 "TS3702" H 4975 6400 50  0000 C CNN
F 2 "~" H 4775 6500 60  0000 C CNN
F 3 "~" H 4775 6500 60  0000 C CNN
	2    4775 6500
	1    0    0    -1  
$EndComp
$Comp
L TS3702 U8
U 1 1 5BF43AC4
P 3225 6450
F 0 "U8" H 3425 6575 60  0000 C CNN
F 1 "TS3702" H 3425 6350 50  0000 C CNN
F 2 "~" H 3225 6450 60  0000 C CNN
F 3 "~" H 3225 6450 60  0000 C CNN
	1    3225 6450
	1    0    0    -1  
$EndComp
$Comp
L +3.3V #PWR039
U 1 1 5BF43BC1
P 3225 6250
F 0 "#PWR039" H 3225 6210 30  0001 C CNN
F 1 "+3.3V" H 3225 6360 30  0000 C CNN
F 2 "" H 3225 6250 60  0000 C CNN
F 3 "" H 3225 6250 60  0000 C CNN
	1    3225 6250
	1    0    0    -1  
$EndComp
$Comp
L GND #PWR040
U 1 1 5BF43BDF
P 3225 6650
F 0 "#PWR040" H 3225 6650 30  0001 C CNN
F 1 "GND" H 3225 6580 30  0001 C CNN
F 2 "" H 3225 6650 60  0000 C CNN
F 3 "" H 3225 6650 60  0000 C CNN
	1    3225 6650
	1    0    0    -1  
$EndComp
$Comp
L R-SMALL R15
U 1 1 5BF43BEE
P 2650 6025
F 0 "R15" H 2550 6125 60  0000 C CNN
F 1 "4k7" H 2650 6025 40  0000 C CNN
F 2 "~" H 2650 6025 60  0000 C CNN
F 3 "~" H 2650 6025 60  0000 C CNN
	1    2650 6025
	1    0    0    -1  
$EndComp
$Comp
L R-SMALL R19
U 1 1 5BF43C00
P 2650 6175
F 0 "R19" H 2575 6050 60  0000 C CNN
F 1 "4k7" H 2650 6175 40  0000 C CNN
F 2 "~" H 2650 6175 60  0000 C CNN
F 3 "~" H 2650 6175 60  0000 C CNN
	1    2650 6175
	1    0    0    -1  
$EndComp
$Comp
L R-SMALL R16
U 1 1 5BF43C1A
P 3500 6025
F 0 "R16" H 3425 5900 60  0000 C CNN
F 1 "4k7" H 3500 6025 40  0000 C CNN
F 2 "~" H 3500 6025 60  0000 C CNN
F 3 "~" H 3500 6025 60  0000 C CNN
	1    3500 6025
	1    0    0    -1  
$EndComp
$Comp
L R-SMALL R21
U 1 1 5BF43C20
P 3500 6850
F 0 "R21" H 3425 6725 60  0000 C CNN
F 1 "4k7" H 3500 6850 40  0000 C CNN
F 2 "~" H 3500 6850 60  0000 C CNN
F 3 "~" H 3500 6850 60  0000 C CNN
	1    3500 6850
	1    0    0    -1  
$EndComp
Wire Wire Line
	2500 6175 2400 6175
Wire Wire Line
	2400 6175 2400 6250
Wire Wire Line
	2500 6025 2400 6025
Wire Wire Line
	2400 6025 2400 5925
$Comp
L +3.3V #PWR041
U 1 1 5BF43E60
P 2400 5925
F 0 "#PWR041" H 2400 5885 30  0001 C CNN
F 1 "+3.3V" H 2400 6035 30  0000 C CNN
F 2 "" H 2400 5925 60  0000 C CNN
F 3 "" H 2400 5925 60  0000 C CNN
	1    2400 5925
	1    0    0    -1  
$EndComp
$Comp
L GND #PWR042
U 1 1 5BF43E6F
P 2400 6250
F 0 "#PWR042" H 2400 6250 30  0001 C CNN
F 1 "GND" H 2400 6180 30  0001 C CNN
F 2 "" H 2400 6250 60  0000 C CNN
F 3 "" H 2400 6250 60  0000 C CNN
	1    2400 6250
	1    0    0    -1  
$EndComp
Wire Wire Line
	2875 6350 2925 6350
Wire Wire Line
	2875 6025 2875 6350
Wire Wire Line
	2800 6025 3350 6025
Connection ~ 2875 6025
Wire Wire Line
	2875 6175 2800 6175
Connection ~ 2875 6175
Wire Wire Line
	3725 6450 3525 6450
Wire Wire Line
	3725 5800 3725 6850
Wire Wire Line
	3725 6025 3650 6025
$Comp
L C C8
U 1 1 5BF443EA
P 2650 6750
F 0 "C8" H 2650 6850 40  0000 L CNN
F 1 "C" H 2656 6665 40  0000 L CNN
F 2 "~" H 2688 6600 30  0000 C CNN
F 3 "~" H 2650 6750 60  0000 C CNN
	1    2650 6750
	1    0    0    -1  
$EndComp
Wire Wire Line
	2650 6950 2650 7025
$Comp
L GND #PWR043
U 1 1 5BF443F8
P 2650 7025
F 0 "#PWR043" H 2650 7025 30  0001 C CNN
F 1 "GND" H 2650 6955 30  0001 C CNN
F 2 "" H 2650 7025 60  0000 C CNN
F 3 "" H 2650 7025 60  0000 C CNN
	1    2650 7025
	1    0    0    -1  
$EndComp
Wire Wire Line
	2650 6550 2925 6550
Wire Wire Line
	2875 6550 2875 6850
Wire Wire Line
	2875 6850 3350 6850
Connection ~ 2875 6550
Wire Wire Line
	3725 6850 3650 6850
Connection ~ 3725 6450
Text Label 3725 5800 0    40   ~ 0
OSC1
$Comp
L +3.3V #PWR044
U 1 1 5BF44996
P 4775 6300
F 0 "#PWR044" H 4775 6260 30  0001 C CNN
F 1 "+3.3V" H 4775 6410 30  0000 C CNN
F 2 "" H 4775 6300 60  0000 C CNN
F 3 "" H 4775 6300 60  0000 C CNN
	1    4775 6300
	1    0    0    -1  
$EndComp
$Comp
L GND #PWR045
U 1 1 5BF4499C
P 4775 6700
F 0 "#PWR045" H 4775 6700 30  0001 C CNN
F 1 "GND" H 4775 6630 30  0001 C CNN
F 2 "" H 4775 6700 60  0000 C CNN
F 3 "" H 4775 6700 60  0000 C CNN
	1    4775 6700
	1    0    0    -1  
$EndComp
$Comp
L R-SMALL R17
U 1 1 5BF449A2
P 4200 6075
F 0 "R17" H 4100 6175 60  0000 C CNN
F 1 "4k7" H 4200 6075 40  0000 C CNN
F 2 "~" H 4200 6075 60  0000 C CNN
F 3 "~" H 4200 6075 60  0000 C CNN
	1    4200 6075
	1    0    0    -1  
$EndComp
$Comp
L R-SMALL R20
U 1 1 5BF449A8
P 4200 6225
F 0 "R20" H 4125 6100 60  0000 C CNN
F 1 "4k7" H 4200 6225 40  0000 C CNN
F 2 "~" H 4200 6225 60  0000 C CNN
F 3 "~" H 4200 6225 60  0000 C CNN
	1    4200 6225
	1    0    0    -1  
$EndComp
$Comp
L R-SMALL R18
U 1 1 5BF449AE
P 5050 6075
F 0 "R18" H 4975 5950 60  0000 C CNN
F 1 "4k7" H 5050 6075 40  0000 C CNN
F 2 "~" H 5050 6075 60  0000 C CNN
F 3 "~" H 5050 6075 60  0000 C CNN
	1    5050 6075
	1    0    0    -1  
$EndComp
$Comp
L R-SMALL R22
U 1 1 5BF449B4
P 5050 6900
F 0 "R22" H 4975 6775 60  0000 C CNN
F 1 "4k7" H 5050 6900 40  0000 C CNN
F 2 "~" H 5050 6900 60  0000 C CNN
F 3 "~" H 5050 6900 60  0000 C CNN
	1    5050 6900
	1    0    0    -1  
$EndComp
Wire Wire Line
	4050 6225 3950 6225
Wire Wire Line
	3950 6225 3950 6300
Wire Wire Line
	4050 6075 3950 6075
Wire Wire Line
	3950 6075 3950 5975
$Comp
L +3.3V #PWR046
U 1 1 5BF449BE
P 3950 5975
F 0 "#PWR046" H 3950 5935 30  0001 C CNN
F 1 "+3.3V" H 3950 6085 30  0000 C CNN
F 2 "" H 3950 5975 60  0000 C CNN
F 3 "" H 3950 5975 60  0000 C CNN
	1    3950 5975
	1    0    0    -1  
$EndComp
$Comp
L GND #PWR047
U 1 1 5BF449C4
P 3950 6300
F 0 "#PWR047" H 3950 6300 30  0001 C CNN
F 1 "GND" H 3950 6230 30  0001 C CNN
F 2 "" H 3950 6300 60  0000 C CNN
F 3 "" H 3950 6300 60  0000 C CNN
	1    3950 6300
	1    0    0    -1  
$EndComp
Wire Wire Line
	4425 6400 4475 6400
Wire Wire Line
	4425 6075 4425 6400
Wire Wire Line
	4350 6075 4900 6075
Connection ~ 4425 6075
Wire Wire Line
	4425 6225 4350 6225
Connection ~ 4425 6225
Wire Wire Line
	5275 6500 5075 6500
Wire Wire Line
	5275 5800 5275 6900
Wire Wire Line
	5275 6075 5200 6075
$Comp
L C C9
U 1 1 5BF449D3
P 4200 6800
F 0 "C9" H 4200 6900 40  0000 L CNN
F 1 "C" H 4206 6715 40  0000 L CNN
F 2 "~" H 4238 6650 30  0000 C CNN
F 3 "~" H 4200 6800 60  0000 C CNN
	1    4200 6800
	1    0    0    -1  
$EndComp
Wire Wire Line
	4200 7000 4200 7075
$Comp
L GND #PWR048
U 1 1 5BF449DA
P 4200 7075
F 0 "#PWR048" H 4200 7075 30  0001 C CNN
F 1 "GND" H 4200 7005 30  0001 C CNN
F 2 "" H 4200 7075 60  0000 C CNN
F 3 "" H 4200 7075 60  0000 C CNN
	1    4200 7075
	1    0    0    -1  
$EndComp
Wire Wire Line
	4200 6600 4475 6600
Wire Wire Line
	4425 6600 4425 6900
Wire Wire Line
	4425 6900 4900 6900
Connection ~ 4425 6600
Wire Wire Line
	5275 6900 5200 6900
Connection ~ 5275 6500
Text Label 4450 5800 0    40   ~ 0
OSC2
NoConn ~ 3850 1550
NoConn ~ 1450 1950
NoConn ~ 1450 2050
NoConn ~ 1450 1350
Text Label 3925 2650 0    40   ~ 0
DIAG3
Wire Wire Line
	4175 2650 3850 2650
$Comp
L +3.3V #PWR049
U 1 1 5BF45751
P 9700 2175
F 0 "#PWR049" H 9700 2135 30  0001 C CNN
F 1 "+3.3V" H 9700 2285 30  0000 C CNN
F 2 "" H 9700 2175 60  0001 C CNN
F 3 "" H 9700 2175 60  0001 C CNN
	1    9700 2175
	1    0    0    -1  
$EndComp
$Comp
L DIODESCH D5
U 1 1 5BF4577C
P 9275 975
F 0 "D5" H 9275 1075 40  0000 C CNN
F 1 "DIODESCH" H 9275 875 40  0000 C CNN
F 2 "~" H 9275 975 60  0000 C CNN
F 3 "~" H 9275 975 60  0000 C CNN
	1    9275 975 
	-1   0    0    1   
$EndComp
Wire Wire Line
	9475 975  9550 975 
Wire Wire Line
	9550 975  9550 1275
Wire Wire Line
	8900 875  8900 975 
Wire Wire Line
	8900 975  9075 975 
$Comp
L STRIP-2 J10
U 1 1 5BF45C1C
P 10425 2925
F 0 "J10" H 10225 2925 60  0000 C CNN
F 1 "12V-in" H 10425 3025 60  0000 C CNN
F 2 "~" H 10425 2925 60  0000 C CNN
F 3 "~" H 10425 2925 60  0000 C CNN
	1    10425 2925
	1    0    0    -1  
$EndComp
Wire Wire Line
	10475 2975 10475 3050
Connection ~ 10475 3050
Wire Wire Line
	10375 2975 10375 3150
Connection ~ 10375 3150
Wire Wire Line
	3725 5800 4225 5800
Connection ~ 3725 6025
Wire Wire Line
	4325 5800 5275 5800
Connection ~ 5275 6075
$Comp
L STRIP-2 J11
U 1 1 5BF46476
P 4275 5575
F 0 "J11" H 4075 5575 60  0000 C CNN
F 1 "osc-out" H 4275 5675 60  0000 C CNN
F 2 "~" H 4275 5575 60  0000 C CNN
F 3 "~" H 4275 5575 60  0000 C CNN
	1    4275 5575
	1    0    0    -1  
$EndComp
Wire Wire Line
	4225 5800 4225 5625
Wire Wire Line
	4325 5625 4325 5800
$Comp
L SPI-FLASH-8 U9
U 1 1 5BF496CC
P 6775 4050
F 0 "U9" H 7025 3750 60  0000 C CNN
F 1 "flash-wson" H 6775 4350 60  0000 C CNN
F 2 "~" H 6775 4050 60  0000 C CNN
F 3 "~" H 6775 4050 60  0000 C CNN
	1    6775 4050
	1    0    0    -1  
$EndComp
Wire Wire Line
	6150 4000 6375 4000
Wire Wire Line
	6150 4100 6375 4100
Wire Wire Line
	6375 4200 6225 4200
Wire Wire Line
	6225 4200 6225 4300
Wire Wire Line
	7175 4000 7375 4000
Wire Wire Line
	7175 4200 7375 4200
Wire Wire Line
	7175 3900 7325 3900
Wire Wire Line
	7325 3900 7325 3700
Wire Wire Line
	7175 4100 7375 4100
Wire Wire Line
	6375 3900 6150 3900
Text Label 6200 3900 0    40   ~ 0
SSEL0
Text Label 6200 4000 0    40   ~ 0
MISO
Text Label 6200 4100 0    40   ~ 0
WP*
Text Label 7175 4000 0    40   ~ 0
RST*
Text Label 7175 4100 0    40   ~ 0
SCK
Text Label 7175 4200 0    40   ~ 0
MOSI
$Comp
L GND #PWR050
U 1 1 5BF496E2
P 6225 4300
F 0 "#PWR050" H 6225 4300 30  0001 C CNN
F 1 "GND" H 6225 4230 30  0001 C CNN
F 2 "" H 6225 4300 60  0000 C CNN
F 3 "" H 6225 4300 60  0000 C CNN
	1    6225 4300
	1    0    0    -1  
$EndComp
$Comp
L SPI-FLASH-8 U5
U 1 1 5BF496E8
P 6750 3150
F 0 "U5" H 7000 2850 60  0000 C CNN
F 1 "flash-so8" H 6750 3450 60  0000 C CNN
F 2 "~" H 6750 3150 60  0000 C CNN
F 3 "~" H 6750 3150 60  0000 C CNN
	1    6750 3150
	1    0    0    -1  
$EndComp
Wire Wire Line
	6150 3100 6350 3100
Wire Wire Line
	6150 3200 6350 3200
Wire Wire Line
	6350 3300 6200 3300
Wire Wire Line
	6200 3300 6200 3400
Wire Wire Line
	7150 3100 7400 3100
Wire Wire Line
	7150 3300 7400 3300
Wire Wire Line
	7150 3000 7300 3000
Wire Wire Line
	7300 3000 7300 2800
Wire Wire Line
	7150 3200 7400 3200
Wire Wire Line
	6350 3000 6150 3000
Text Label 6175 3000 0    40   ~ 0
SSEL0
Text Label 6175 3100 0    40   ~ 0
MISO
Text Label 6175 3200 0    40   ~ 0
WP*
Text Label 7200 3100 0    40   ~ 0
RST*
Text Label 7200 3200 0    40   ~ 0
SCK
Text Label 7200 3300 0    40   ~ 0
MOSI
$Comp
L GND #PWR051
U 1 1 5BF496FE
P 6200 3400
F 0 "#PWR051" H 6200 3400 30  0001 C CNN
F 1 "GND" H 6200 3330 30  0001 C CNN
F 2 "" H 6200 3400 60  0000 C CNN
F 3 "" H 6200 3400 60  0000 C CNN
	1    6200 3400
	1    0    0    -1  
$EndComp
$Comp
L +3.3V #PWR052
U 1 1 5BF49710
P 7300 2800
F 0 "#PWR052" H 7300 2760 30  0001 C CNN
F 1 "+3.3V" H 7300 2910 30  0000 C CNN
F 2 "" H 7300 2800 60  0000 C CNN
F 3 "" H 7300 2800 60  0000 C CNN
	1    7300 2800
	1    0    0    -1  
$EndComp
$Comp
L +3.3V #PWR053
U 1 1 5BF49716
P 7325 3700
F 0 "#PWR053" H 7325 3660 30  0001 C CNN
F 1 "+3.3V" H 7325 3810 30  0000 C CNN
F 2 "" H 7325 3700 60  0000 C CNN
F 3 "" H 7325 3700 60  0000 C CNN
	1    7325 3700
	1    0    0    -1  
$EndComp
Wire Wire Line
	7725 3375 8125 3375
Text Label 7825 3375 0    40   ~ 0
WP*
Wire Wire Line
	8125 3300 8125 3450
Connection ~ 8125 3375
$Comp
L CSMALL C10
U 1 1 5BF4C60D
P 8125 3550
F 0 "C10" H 8150 3600 30  0000 L CNN
F 1 "100n" H 8150 3500 30  0000 L CNN
F 2 "~" H 8125 3550 60  0000 C CNN
F 3 "~" H 8125 3550 60  0000 C CNN
	1    8125 3550
	1    0    0    -1  
$EndComp
Wire Wire Line
	8125 3650 8125 3750
$Comp
L GND #PWR054
U 1 1 5BF4C619
P 8125 3750
F 0 "#PWR054" H 8125 3750 30  0001 C CNN
F 1 "GND" H 8125 3680 30  0001 C CNN
F 2 "" H 8125 3750 60  0000 C CNN
F 3 "" H 8125 3750 60  0000 C CNN
	1    8125 3750
	1    0    0    -1  
$EndComp
$Comp
L +3.3V #PWR055
U 1 1 5BF4C628
P 8125 3300
F 0 "#PWR055" H 8125 3260 30  0001 C CNN
F 1 "+3.3V" H 8125 3410 30  0000 C CNN
F 2 "" H 8125 3300 60  0000 C CNN
F 3 "" H 8125 3300 60  0000 C CNN
	1    8125 3300
	1    0    0    -1  
$EndComp
$Comp
L OSC-6PIN U10
U 1 1 5BF4CE59
P 6500 5225
F 0 "U10" H 6350 5525 60  0000 C CNN
F 1 "vcxo" H 6500 4975 40  0000 C CNN
F 2 "~" H 6500 5075 60  0000 C CNN
F 3 "~" H 6500 5075 60  0000 C CNN
	1    6500 5225
	1    0    0    -1  
$EndComp
Wire Wire Line
	6200 5125 6075 5125
Text Label 6100 5125 0    40   ~ 0
VC
Wire Wire Line
	5975 5225 6200 5225
Wire Wire Line
	5975 4950 5975 5225
$Comp
L +3.3V #PWR056
U 1 1 5BF4D243
P 5975 4950
F 0 "#PWR056" H 5975 4910 30  0001 C CNN
F 1 "+3.3V" H 5975 5060 30  0000 C CNN
F 2 "" H 5975 4950 60  0000 C CNN
F 3 "" H 5975 4950 60  0000 C CNN
	1    5975 4950
	1    0    0    -1  
$EndComp
Wire Wire Line
	6800 5125 6850 5125
Wire Wire Line
	6850 5125 6850 4975
Wire Wire Line
	6850 4975 5975 4975
Connection ~ 5975 4975
Wire Wire Line
	6200 5325 5975 5325
Wire Wire Line
	5975 5325 5975 5450
$Comp
L GND #PWR057
U 1 1 5BF4D515
P 5975 5450
F 0 "#PWR057" H 5975 5450 30  0001 C CNN
F 1 "GND" H 5975 5380 30  0001 C CNN
F 2 "" H 5975 5450 60  0000 C CNN
F 3 "" H 5975 5450 60  0000 C CNN
	1    5975 5450
	1    0    0    -1  
$EndComp
Text Label 4025 4000 0    40   ~ 0
Xin
Wire Wire Line
	6800 5325 6925 5325
Text Label 6825 5325 0    40   ~ 0
Xin
Wire Wire Line
	1800 6850 1575 6850
Wire Wire Line
	8200 5425 8050 5425
NoConn ~ 8200 5425
NoConn ~ 3850 2350
Wire Wire Line
	3850 2150 4200 2150
Text Label 3950 2150 0    40   ~ 0
SSEL0
Wire Notes Line
	8500 4000 9725 4000
Wire Notes Line
	9725 4000 9725 5850
Wire Notes Line
	9725 5850 8500 5850
Wire Notes Line
	8500 5850 8500 4000
Text Notes 8575 5775 0    60   ~ 12
Main TDC inputs
Wire Notes Line
	8425 2550 5850 2550
Wire Notes Line
	5850 2550 5850 4650
Wire Notes Line
	5850 4650 8425 4650
Wire Notes Line
	8425 4650 8425 2550
Text Notes 5925 4600 0    60   ~ 12
Flash Memory
Wire Notes Line
	8425 4750 8425 5850
Wire Notes Line
	8425 5850 5850 5850
Wire Notes Line
	5850 5850 5850 4750
Wire Notes Line
	5850 4750 8425 4750
Text Notes 5925 5775 0    60   ~ 12
VCXO and DAC
Wire Notes Line
	2225 5175 5425 5175
Wire Notes Line
	5425 5175 5425 7675
Wire Notes Line
	5425 7675 2225 7675
Wire Notes Line
	2225 7675 2225 5175
Text Notes 2325 7600 0    60   ~ 12
Oscillaors, for self-test
$EndSCHEMATC
